stateid,express
13,KRLG1p2B4p
3,EomespTbetpGzmBpKLRG1p2B4p
12,EomespTbetpGzmBpPD1p
2,2B4pKLRG1pTbetpGzmBp
5,2B4pKLRG1pTbetpGzmBpEomespPD1p
1,2B4pKLRG1pTbetpEomespGzmBp
7,TIGITpKLRG1pTbetpEomespGzmBp
6,TIGITpPD1pTOXp2B4pKLRG1pEomesp
8,TIGITp2B4pKLRG1pGzmBp
4,TIGITpPD1p2B4pKLRG1pTbetpEomespGzmBp
23,OX40pCTLA4pICOSp
11,GzmBp
10,PD1pGzmBp
19,ICOSpTOXpGzmBp
14,ICOSpPD1pGzmBp
9,CTLA4pICOSpEomespGzmBp
16,TIGITp
15,TIGITpPD1pTOXpGzmB
25,TIGITpPD1pTOXpEomesp
22,ICOSpTIGITpPD1pTOXpGzmBp
24,OX40pCTLA4pICOSpGzmBp
21,OX40pCTLA4pICOSpPD1pTOXpGzmBp
17,ICOSpPD1pTOXpTbetpEomespGzmBp
18,4-1BBpTIGITpPD1pTOXp2B4pKLRG1pTbetpEomespGzmBp
20,TIM3pLAG3pOX40pCTLA4pICOSpPD1pTOXpTbetpEomespGzmBp